CLL Cytokine Screen 2021: Figure 1
…
# Compute correlation matrix
#::::::::::::::::::::::::::::::::::::::::::
# Correlation matrix between all variables
cor.mat <- mydata %>% rstatix::cor_mat()
cor.mat

## # A tibble: 29 x 30
##    rowname       BAFF `BAY-11-7085` `CpG ODN` Everolimus Fludarabine `HS-5 CM`
##  * <chr>        <dbl>         <dbl>     <dbl>      <dbl>       <dbl>     <dbl>
##  1 BAFF         1             0.014     0.24     -0.35        -0.092     0.067
##  2 BAY-11-7085  0.014         1         0.18     -0.33        -0.03      0.39 
##  3 CpG ODN      0.24          0.18      1         0.021        0.18     -0.031
##  4 Everolimus  -0.35         -0.33      0.021     1            0.28     -0.13 
##  5 Fludarabine -0.092        -0.03      0.18      0.28         1         0.04 
##  6 HS-5 CM      0.067         0.39     -0.031    -0.13         0.04      1    
##  7 I-BET 762   -0.14          0.43     -0.031     0.14         0.41      0.068
##  8 Ibrutinib   -0.28          0.11     -0.48      0.066        0.24      0.21 
##  9 Idelalisib  -0.37          0.13     -0.41      0.26         0.23      0.18 
## 10 IL-10        0.18         -0.075    -0.036     0.0036       0.065     0.13 
## # ... with 19 more rows, and 23 more variables: `I-BET 762` <dbl>,
## #   Ibrutinib <dbl>, Idelalisib <dbl>, `IL-10` <dbl>, `IL-15` <dbl>,
## #   `IL-1b` <dbl>, `IL-2` <dbl>, `IL-21` <dbl>, `IL-4` <dbl>, `IL-6` <dbl>,
## #   `Interferon gamma` <dbl>, Luminespib <dbl>, `Nutlin-3a` <dbl>,
## #   PRT062607 <dbl>, `Pyridone-6` <dbl>, Ralimetinib <dbl>, Resiquimod <dbl>,
## #   sCD40L <dbl>, `sCD40L+IL-4` <dbl>, `SDF-1a` <dbl>, Selumetinib <dbl>,
## #   `soluble anti-IgM` <dbl>, `TGF-b1` <dbl>
…
