CLL Cytokine Screen 2021: Figure 6
…
order_comb <- rownames(coeff.mat)[fit$order]

#Put matrix into long format for ggplot
coeff.long.mat <- coeff.mat %>% 
  as.data.frame() %>% 
  tibble::rownames_to_column("int") %>% 
  tidyr::gather(key = "gene", value = "coeff", -int)

#Check number of combinations affected by all genetic alterations
coeff.long.mat %>% 
  dplyr::filter(coeff!=0) %>%
  dplyr::group_by(int) %>% 
  dplyr::summarize()

## # A tibble: 60 x 1
##    int                     
##    <chr>                   
##  1 BAY-11-7085 + CpG ODN   
##  2 BAY-11-7085 + Resiquimod
##  3 BAY-11-7085 + TGF-b1    
##  4 Everolimus + CpG ODN    
##  5 Everolimus + IL-4       
##  6 Everolimus + Resiquimod 
##  7 Everolimus + sCD40L+IL-4
##  8 Everolimus + TGF-b1     
##  9 Fludarabine + CpG ODN   
## 10 Fludarabine + IL-21     
## # ... with 50 more rows
…
#Number of combinations affected by Top 8 genetic alterations
coeff.long.mat %>% 
  dplyr::filter(coeff!=0, gene%in%order_alt) %>%
  dplyr::group_by(int) %>% 
  dplyr::summarize()

## # A tibble: 60 x 1
##    int                     
##    <chr>                   
##  1 BAY-11-7085 + CpG ODN   
##  2 BAY-11-7085 + Resiquimod
##  3 BAY-11-7085 + TGF-b1    
##  4 Everolimus + CpG ODN    
##  5 Everolimus + IL-4       
##  6 Everolimus + Resiquimod 
##  7 Everolimus + sCD40L+IL-4
##  8 Everolimus + TGF-b1     
##  9 Fludarabine + CpG ODN   
## 10 Fludarabine + IL-21     
## # ... with 50 more rows
…
